<?xml version="1.0" standalone="no"?>
<!DOCTYPE svg PUBLIC "-//W3C//DTD SVG 20010904//EN"
 "http://www.w3.org/TR/2001/REC-SVG-20010904/DTD/svg10.dtd">
<svg version="1.0" xmlns="http://www.w3.org/2000/svg"
 width="375.000000pt" height="138.000000pt" viewBox="0 0 375.000000 138.000000"
 preserveAspectRatio="xMidYMid meet">

<g transform="translate(0.000000,138.000000) scale(0.100000,-0.100000)"
fill="#000000" stroke="none">
<path d="M250 1135 l0 -95 325 0 325 0 0 95 0 95 -325 0 -325 0 0 -95z"/>
<path d="M1230 605 c0 -407 2 -465 15 -465 13 0 15 58 15 465 0 407 -2 465
-15 465 -13 0 -15 -58 -15 -465z"/>
<path d="M3361 1057 c-6 -6 -11 -15 -11 -19 0 -13 37 -9 49 6 9 11 7 15 -8 19
-11 2 -24 0 -30 -6z"/>
<path d="M1460 1011 c0 -3 14 -41 31 -84 47 -116 73 -117 120 -2 35 87 35 91
2 89 -22 0 -29 -8 -41 -42 -7 -23 -17 -42 -21 -42 -4 0 -13 17 -19 39 -10 32
-17 40 -42 43 -17 3 -30 2 -30 -1z"/>
<path d="M1785 1009 c-32 -18 -45 -40 -45 -75 0 -47 9 -63 42 -80 55 -28 147
8 102 40 -14 10 -22 11 -36 2 -24 -15 -53 4 -53 34 0 30 29 49 53 34 14 -9 22
-8 37 2 17 13 18 16 4 29 -20 21 -79 28 -104 14z"/>
<path d="M1987 1012 l-68 -3 3 -82 3 -82 70 0 c63 0 70 2 70 20 0 17 -8 20
-47 23 -61 4 -63 22 -3 22 38 0 45 3 45 20 0 17 -7 20 -39 20 -22 0 -43 5 -46
10 -4 6 12 10 40 10 32 0 47 5 52 16 9 24 -7 29 -80 26z"/>
<path d="M2270 927 c0 -86 1 -88 23 -85 14 2 23 11 25 26 4 29 18 28 38 -3 10
-15 26 -25 40 -25 26 0 32 18 12 38 -9 9 -7 20 7 46 17 32 17 36 2 59 -14 22
-25 26 -82 29 l-65 3 0 -88z m98 26 c-2 -10 -12 -18 -23 -18 -11 0 -21 8 -23
18 -3 13 3 17 23 17 20 0 26 -4 23 -17z"/>
<path d="M2450 928 l0 -88 70 0 c68 0 70 1 70 25 0 23 -4 25 -45 25 -25 0 -45
5 -45 10 0 6 18 10 40 10 33 0 40 3 40 20 0 17 -7 20 -40 20 -22 0 -40 5 -40
10 0 6 20 10 45 10 38 0 45 3 45 19 0 17 -9 20 -70 23 l-70 3 0 -87z"/>
<path d="M2655 1008 c-31 -18 -44 -40 -45 -75 0 -45 9 -62 41 -78 39 -20 72
-19 100 5 23 19 23 21 5 34 -14 12 -22 12 -37 3 -25 -16 -54 2 -54 33 0 30 29
49 53 34 14 -9 23 -8 37 3 20 14 20 15 -4 34 -26 21 -66 24 -96 7z"/>
<path d="M2790 993 c0 -18 6 -23 25 -23 24 0 25 -2 25 -66 0 -62 1 -65 23 -62
20 3 22 9 25 66 3 58 4 62 27 62 18 0 25 5 25 19 0 17 -9 20 -75 23 -72 3 -75
2 -75 -19z"/>
<path d="M3004 1010 c-58 -23 -70 -95 -25 -141 69 -68 181 0 149 91 -16 48
-73 71 -124 50z m71 -60 c10 -32 -4 -60 -30 -60 -31 0 -50 32 -35 60 6 11 21
20 35 20 15 0 26 -7 30 -20z"/>
<path d="M3160 927 c0 -86 1 -88 23 -85 14 2 23 11 25 26 4 29 18 28 38 -3 10
-15 26 -25 40 -25 26 0 32 18 12 38 -9 9 -7 20 7 46 17 32 17 36 2 59 -14 22
-25 26 -82 29 l-65 3 0 -88z m98 26 c-2 -10 -13 -19 -26 -21 -17 -3 -22 2 -22
17 0 16 6 21 26 21 19 0 25 -5 22 -17z"/>
<path d="M3340 928 c0 -87 1 -89 23 -86 20 3 22 9 25 84 3 80 2 82 -23 86
l-25 5 0 -89z"/>
<path d="M3466 988 c-8 -18 -24 -55 -35 -81 -12 -27 -21 -53 -21 -58 0 -14 37
-10 54 6 8 8 26 15 39 15 14 0 30 -7 37 -15 13 -16 46 -20 54 -7 2 4 -11 43
-29 87 -28 69 -36 80 -59 83 -22 3 -29 -2 -40 -30z m49 -68 c0 -7 -6 -15 -12
-17 -8 -3 -13 4 -13 17 0 13 5 20 13 18 6 -3 12 -11 12 -18z"/>
<path d="M1662 928 c3 -77 5 -83 26 -86 21 -3 22 -1 22 82 0 85 0 86 -25 86
-26 0 -26 0 -23 -82z"/>
<path d="M2090 924 c0 -83 1 -85 23 -82 14 2 23 11 25 26 4 29 18 28 38 -3 9
-14 26 -25 38 -25 32 0 39 11 19 32 -15 17 -15 20 2 52 18 32 18 36 2 60 -16
24 -24 26 -82 26 l-65 0 0 -86z m98 29 c-2 -10 -12 -18 -23 -18 -11 0 -21 8
-23 18 -3 13 3 17 23 17 20 0 26 -4 23 -17z"/>
<path d="M250 845 c0 -164 6 -186 67 -232 l36 -28 190 -3 c105 -2 206 -1 224
3 46 8 110 68 123 113 5 21 10 94 10 165 l0 127 -110 0 -110 0 0 -125 0 -126
-107 3 -108 3 -3 123 -3 122 -104 0 -105 0 0 -145z"/>
<path d="M1458 774 c-5 -4 -8 -43 -8 -86 l0 -78 60 0 c51 0 65 4 85 25 33 32
34 83 1 114 -24 23 -123 41 -138 25z m100 -56 c16 -16 15 -33 -4 -52 -28 -28
-44 -20 -44 24 0 32 4 40 18 40 10 0 23 -5 30 -12z"/>
<path d="M1647 774 c-4 -4 -7 -43 -7 -86 l0 -78 75 0 c68 0 75 2 75 20 0 17
-7 20 -45 20 -25 0 -45 5 -45 10 0 6 18 10 40 10 33 0 40 3 40 20 0 17 -7 20
-41 20 -28 0 -39 4 -36 13 2 7 21 12 43 12 32 0 39 3 39 20 0 18 -8 20 -65 23
-36 2 -69 0 -73 -4z"/>
<path d="M1878 774 c-5 -4 -8 -43 -8 -86 l0 -78 30 0 c23 0 30 5 30 19 0 14
10 21 33 26 17 4 38 12 45 17 17 15 15 73 -4 89 -17 14 -115 25 -126 13z m81
-43 c17 -11 7 -41 -14 -41 -9 0 -15 9 -15 25 0 27 6 30 29 16z"/>
<path d="M2047 773 c-4 -3 -7 -42 -7 -85 l0 -78 30 0 c26 0 30 4 30 28 l1 27
22 -27 c15 -19 32 -28 51 -28 28 0 28 0 11 26 -15 24 -15 27 0 44 24 26 16 72
-15 87 -26 13 -112 18 -123 6z m98 -63 c0 -8 -10 -16 -22 -18 -18 -3 -23 2
-23 18 0 16 5 21 23 18 12 -2 22 -10 22 -18z"/>
<path d="M2227 774 c-4 -4 -7 -43 -7 -86 l0 -78 75 0 c68 0 75 2 75 20 0 17
-7 20 -45 20 -25 0 -45 5 -45 10 0 6 18 10 40 10 33 0 40 3 40 20 0 17 -7 20
-41 20 -28 0 -39 4 -36 13 2 6 21 12 43 13 32 0 39 4 39 20 0 17 -8 19 -65 22
-36 2 -69 0 -73 -4z"/>
<path d="M2417 760 c-81 -64 -8 -181 94 -151 37 11 39 14 39 54 0 42 0 42 -35
41 -45 -1 -55 -12 -31 -30 25 -18 9 -35 -21 -23 -17 6 -23 16 -23 38 0 37 30
57 59 42 14 -8 22 -7 32 5 11 14 10 18 -6 30 -27 20 -78 17 -108 -6z"/>
<path d="M2580 695 c0 -84 0 -85 25 -85 18 0 25 5 25 20 0 11 4 20 10 20 5 0
15 -9 22 -20 11 -17 24 -20 75 -20 35 0 63 4 63 10 0 6 16 10 35 10 19 0 35
-4 35 -10 0 -5 14 -10 31 -10 35 0 35 3 -12 108 -26 57 -31 63 -55 60 -22 -3
-31 -14 -57 -78 -38 -92 -34 -87 -54 -68 -15 15 -15 19 1 52 29 61 -7 96 -100
96 l-44 0 0 -85z m98 18 c-2 -10 -13 -19 -26 -21 -17 -3 -22 2 -22 17 0 16 6
21 26 21 19 0 25 -5 22 -17z m172 -28 c0 -8 -7 -15 -15 -15 -16 0 -20 12 -8
23 11 12 23 8 23 -8z"/>
<path d="M2950 696 l0 -86 54 0 c75 0 106 25 106 85 0 55 -27 76 -106 83 l-54
4 0 -86z m104 12 c14 -23 -3 -53 -30 -53 -15 0 -20 9 -22 38 -3 35 -1 38 19
35 12 -2 27 -11 33 -20z"/>
<path d="M3177 769 c-11 -6 -25 -26 -33 -45 -40 -95 78 -163 152 -89 69 70
-33 184 -119 134z m83 -59 c22 -40 -26 -80 -58 -48 -13 13 -16 50 -5 61 14 14
53 6 63 -13z"/>
<path d="M90 521 c0 -13 8 -21 23 -23 20 -3 22 -9 25 -85 3 -80 4 -83 27 -83
23 0 24 3 27 83 3 78 4 82 26 81 17 0 22 5 22 23 0 22 -3 23 -75 23 -67 0 -75
-2 -75 -19z"/>
<path d="M279 438 c-49 -101 -50 -103 -27 -106 15 -3 27 3 36 17 20 30 108 31
117 1 4 -13 15 -20 32 -20 13 0 23 4 21 9 -1 4 -23 52 -47 105 -58 128 -66
127 -132 -6z m91 -20 c0 -4 -11 -8 -25 -8 -28 0 -30 3 -14 32 11 21 12 21 25
3 8 -10 14 -22 14 -27z"/>
<path d="M490 435 l0 -105 82 0 c80 0 81 0 63 20 -12 13 -31 20 -57 20 l-38 0
0 85 c0 84 0 85 -25 85 l-25 0 0 -105z"/>
<path d="M684 530 c-64 -26 -83 -109 -36 -160 45 -51 152 -55 152 -6 0 22 -2
23 -28 14 -60 -23 -113 18 -98 77 9 36 46 51 91 38 33 -11 35 -10 35 12 0 13
-7 26 -16 29 -22 8 -75 6 -100 -4z"/>
<path d="M870 448 c-23 -51 -44 -99 -47 -105 -3 -9 4 -13 20 -13 17 0 28 7 32
20 9 30 97 29 117 -1 8 -13 21 -20 35 -17 22 3 21 6 -27 106 -64 133 -73 134
-130 10z m80 -7 c14 -28 13 -31 -16 -31 -20 0 -25 4 -20 16 3 9 6 20 6 25 0
16 19 10 30 -10z"/>
<path d="M1477 494 c-4 -4 -7 -32 -6 -63 0 -38 3 -50 8 -36 5 11 20 22 36 25
36 6 54 33 39 58 -11 17 -64 29 -77 16z m68 -34 c0 -21 -5 -26 -32 -28 -29 -3
-33 0 -33 21 0 31 9 39 40 35 19 -2 25 -9 25 -28z"/>
<path d="M2480 480 c0 -11 -5 -20 -11 -20 -8 0 -8 -5 1 -15 7 -8 10 -25 6 -40
-4 -14 -2 -25 4 -25 6 0 10 26 10 60 0 33 -2 60 -5 60 -3 0 -5 -9 -5 -20z"/>
<path d="M2697 493 c-4 -3 -7 -31 -6 -62 1 -40 3 -49 8 -31 5 17 16 27 36 31
l30 7 -33 1 c-29 1 -33 4 -30 24 2 16 12 24 38 28 l35 6 -36 2 c-20 0 -39 -2
-42 -6z"/>
<path d="M1678 459 c-28 -16 -23 -67 7 -81 46 -21 88 42 48 73 -15 11 -16 11
-5 -1 28 -32 1 -78 -38 -65 -29 9 -27 58 3 73 12 6 18 11 12 11 -5 0 -18 -4
-27 -10z"/>
<path d="M1786 448 c-9 -12 -16 -26 -16 -30 0 -13 31 -38 48 -38 12 0 10 4 -7
13 -33 16 -36 32 -12 56 12 12 17 21 12 21 -6 0 -17 -10 -25 -22z"/>
<path d="M2007 458 c17 -8 21 -18 19 -44 -1 -19 1 -34 6 -34 4 0 8 16 8 35 0
32 -21 56 -47 54 -4 0 2 -5 14 -11z"/>
<path d="M2123 453 c8 -10 17 -31 20 -48 4 -29 4 -28 6 6 1 34 -13 59 -33 59
-5 0 -2 -8 7 -17z"/>
<path d="M2183 459 c11 -6 18 -24 19 -47 l1 -37 4 33 c4 34 -10 62 -31 62 -6
0 -3 -5 7 -11z"/>
<path d="M2287 455 c16 -11 21 -23 18 -45 -2 -17 0 -30 5 -30 6 0 10 16 10 35
0 24 -6 37 -19 45 -29 15 -38 12 -14 -5z"/>
<path d="M2417 452 c-10 -10 -17 -25 -17 -34 0 -18 31 -48 51 -48 8 0 3 6 -11
13 -33 17 -37 51 -8 71 12 9 18 16 12 16 -6 0 -18 -8 -27 -18z"/>
<path d="M2858 454 c28 -20 29 -60 2 -69 -39 -13 -66 33 -37 65 10 12 9 12 -5
1 -24 -18 -23 -44 2 -66 17 -15 24 -16 45 -7 32 15 35 66 6 82 -30 15 -38 12
-13 -6z"/>
<path d="M3043 459 c11 -6 18 -24 19 -47 1 -36 1 -36 5 -5 8 66 62 65 64 -1 1
-18 3 -23 6 -13 12 45 -23 91 -51 68 -7 -6 -17 -6 -26 -1 -8 6 -19 10 -25 10
-5 -1 -2 -5 8 -11z"/>
<path d="M3285 450 c-35 -39 7 -97 52 -71 15 8 13 10 -11 8 -35 -3 -57 24 -40
51 8 11 22 16 40 15 22 -2 25 0 14 7 -22 14 -35 12 -55 -10z"/>
<path d="M3477 458 c28 -14 36 -34 22 -61 -10 -21 -10 -21 5 -3 9 11 16 23 16
28 0 13 -39 48 -52 47 -7 0 -3 -5 9 -11z"/>
<path d="M3593 459 c11 -6 18 -24 19 -47 l1 -37 4 33 c4 34 -10 62 -31 62 -6
0 -3 -5 7 -11z"/>
<path d="M1591 420 l1 -45 8 35 c5 20 5 39 -1 45 -5 5 -9 -8 -8 -35z"/>
<path d="M1846 445 c4 -8 8 -15 10 -15 2 0 4 7 4 15 0 8 -4 15 -10 15 -5 0 -7
-7 -4 -15z"/>
<path d="M1901 415 l1 -40 8 34 c4 18 14 37 21 42 10 6 7 8 -9 6 -19 -1 -22
-7 -21 -42z"/>
<path d="M2077 453 c-4 -3 -7 -11 -7 -17 0 -6 5 -5 12 2 6 6 9 14 7 17 -3 3
-9 2 -12 -2z"/>
<path d="M2925 443 c-11 -30 4 -33 22 -5 9 15 8 19 -3 19 -7 0 -16 -7 -19 -14z"/>
<path d="M3000 420 c0 -22 2 -40 4 -40 2 0 6 18 8 40 2 22 0 40 -4 40 -5 0 -8
-18 -8 -40z"/>
<path d="M3225 419 c0 -21 3 -39 8 -39 4 0 7 15 7 34 0 19 -3 37 -7 39 -5 3
-8 -12 -8 -34z"/>
<path d="M3383 420 c0 -25 2 -35 4 -22 2 12 2 32 0 45 -2 12 -4 2 -4 -23z"/>
<path d="M3428 435 c-9 -21 -8 -28 7 -45 10 -11 25 -20 34 -19 11 0 10 3 -5 9
-27 11 -37 36 -24 61 6 10 8 19 5 19 -3 0 -11 -11 -17 -25z"/>
<path d="M3553 420 c0 -25 2 -35 4 -22 2 12 2 32 0 45 -2 12 -4 2 -4 -23z"/>
<path d="M1970 415 c-10 -12 -10 -18 0 -30 7 -8 17 -15 23 -15 6 0 2 6 -8 14
-16 12 -17 16 -6 30 7 9 11 16 8 16 -2 0 -10 -7 -17 -15z"/>
<path d="M2250 414 c-11 -12 -10 -18 5 -32 18 -16 18 -16 6 1 -11 14 -11 20
-1 32 7 8 10 15 7 15 -2 0 -10 -7 -17 -16z"/>
<path d="M2520 417 c0 -18 32 -47 51 -47 8 0 3 6 -11 13 -15 8 -24 20 -22 30
2 9 -2 17 -8 17 -5 0 -10 -6 -10 -13z"/>
<path d="M3170 415 c-10 -12 -10 -18 0 -30 7 -8 18 -15 24 -15 6 0 5 4 -3 9
-8 5 -12 18 -8 30 6 25 4 26 -13 6z"/>
<path d="M1846 405 c-3 -8 -1 -15 4 -15 6 0 10 7 10 15 0 8 -2 15 -4 15 -2 0
-6 -7 -10 -15z"/>
<path d="M1842 364 c-7 -8 -8 -14 -3 -14 10 0 25 19 20 25 -2 1 -10 -3 -17
-11z"/>
<path d="M1889 298 c-1 -13 -2 -40 -3 -60 -2 -21 1 -38 6 -38 4 0 8 27 8 60 0
33 -2 60 -5 60 -3 0 -5 -10 -6 -22z"/>
<path d="M2613 260 c0 -36 2 -50 4 -32 2 17 2 47 0 65 -2 17 -4 3 -4 -33z"/>
<path d="M1470 253 c0 -31 3 -54 6 -51 9 9 11 108 2 108 -4 0 -8 -26 -8 -57z"/>
<path d="M2438 298 c-10 -25 7 -101 22 -105 11 -4 12 -2 2 4 -7 6 -12 28 -11
56 2 47 -4 69 -13 45z"/>
<path d="M148 284 c-11 -10 -10 -56 1 -72 5 -8 21 -12 37 -10 26 3 29 7 32 46
2 25 -1 42 -7 42 -6 0 -11 -15 -11 -34 0 -60 -34 -53 -42 7 -1 16 -6 25 -10
21z"/>
<path d="M240 245 c0 -25 5 -45 10 -45 6 0 10 12 10 28 l1 27 24 -27 c34 -39
45 -35 45 17 0 25 -4 45 -10 45 -5 0 -10 -12 -10 -27 l0 -27 -28 27 c-15 15
-31 27 -35 27 -4 0 -7 -20 -7 -45z"/>
<path d="M350 245 c0 -25 5 -45 10 -45 6 0 10 20 10 45 0 25 -4 45 -10 45 -5
0 -10 -20 -10 -45z"/>
<path d="M390 284 c0 -24 31 -85 42 -82 15 5 50 88 37 88 -5 0 -15 -11 -21
-25 -11 -24 -28 -34 -28 -17 0 13 -29 48 -30 36z"/>
<path d="M490 245 c0 -44 1 -45 33 -44 31 0 32 0 7 11 l-25 10 25 11 c25 10
25 10 3 14 -28 5 -30 23 -3 23 11 0 20 5 20 10 0 6 -13 10 -30 10 -29 0 -30
-2 -30 -45z"/>
<path d="M570 245 c0 -25 5 -45 10 -45 6 0 10 8 10 18 1 16 1 16 11 0 16 -28
25 -21 25 20 0 39 -9 52 -38 52 -15 0 -18 -9 -18 -45z m40 15 c0 -5 -4 -10
-10 -10 -5 0 -10 5 -10 10 0 6 5 10 10 10 6 0 10 -4 10 -10z"/>
<path d="M667 283 c-14 -14 -6 -40 16 -51 l22 -11 -22 0 c-31 -1 -29 -21 1
-21 31 0 41 27 16 42 -24 15 -26 28 -4 28 8 0 12 5 9 10 -7 11 -28 13 -38 3z"/>
<path d="M730 245 c0 -25 5 -45 10 -45 6 0 10 20 10 45 0 25 -4 45 -10 45 -5
0 -10 -20 -10 -45z"/>
<path d="M770 245 c0 -45 0 -45 35 -45 24 0 37 6 45 20 19 35 -12 70 -61 70
-16 0 -19 -7 -19 -45z m58 1 c4 -19 -16 -39 -30 -30 -4 3 -8 16 -8 30 0 19 5
25 17 22 10 -2 19 -12 21 -22z"/>
<path d="M880 249 c-24 -46 -22 -56 8 -38 17 10 23 10 36 -1 9 -7 19 -10 22
-7 6 5 -33 87 -41 87 -3 0 -14 -18 -25 -41z m35 -9 c3 -5 1 -10 -4 -10 -6 0
-11 5 -11 10 0 6 2 10 4 10 3 0 8 -4 11 -10z"/>
<path d="M970 245 c0 -41 2 -45 24 -45 42 0 56 11 56 41 0 30 -23 49 -59 49
-18 0 -21 -6 -21 -45z m58 1 c4 -17 -12 -35 -30 -36 -5 0 -8 14 -8 31 0 24 4
30 17 27 10 -2 19 -12 21 -22z"/>
<path d="M1594 240 c1 -40 4 -45 26 -47 22 -2 23 -2 5 6 -13 5 -22 21 -26 47
l-7 39 2 -45z"/>
<path d="M1700 241 c0 -23 2 -41 4 -41 8 0 12 71 4 76 -4 3 -8 -13 -8 -35z"/>
<path d="M1757 269 c6 -8 13 -30 16 -49 4 -28 4 -26 3 9 -1 30 -6 46 -16 49
-12 4 -13 2 -3 -9z"/>
<path d="M1822 268 c-28 -28 -7 -79 33 -77 17 1 16 2 -5 8 -28 8 -39 43 -20
67 15 17 9 19 -8 2z"/>
<path d="M2040 241 c0 -23 2 -41 4 -41 8 0 12 71 4 76 -4 3 -8 -13 -8 -35z"/>
<path d="M2088 273 c6 -2 12 -12 12 -21 0 -13 3 -13 12 -4 10 10 10 15 -2 22
-8 5 -19 9 -25 9 -5 0 -4 -3 3 -6z"/>
<path d="M2158 268 c7 -7 13 -26 13 -42 1 -19 3 -24 6 -13 7 26 -5 67 -19 67
-9 0 -9 -3 0 -12z"/>
<path d="M2222 268 c-28 -28 -7 -79 33 -77 17 1 16 2 -5 8 -28 8 -39 43 -20
67 15 17 9 19 -8 2z"/>
<path d="M2271 263 c7 -12 15 -20 18 -17 3 2 -3 12 -13 22 -17 16 -18 16 -5
-5z"/>
<path d="M2320 235 c0 -27 2 -46 4 -44 8 8 10 78 3 85 -4 4 -7 -14 -7 -41z"/>
<path d="M2378 268 c7 -7 13 -26 13 -42 1 -19 3 -24 6 -13 7 26 -5 67 -19 67
-9 0 -9 -3 0 -12z"/>
<path d="M2556 270 c5 -8 10 -27 9 -42 0 -16 3 -28 7 -28 15 0 8 58 -9 71 -16
12 -17 12 -7 -1z"/>
<path d="M1661 253 c0 -12 -4 -30 -7 -40 -5 -17 -5 -17 6 0 6 10 9 28 7 40 -4
22 -4 22 -6 0z"/>
<path d="M1993 226 c0 -14 3 -26 8 -26 11 0 11 21 0 39 -6 9 -8 5 -8 -13z"/>
<path d="M1934 225 c-7 -17 3 -35 19 -35 8 0 7 3 -2 9 -8 5 -11 16 -8 25 4 9
4 16 1 16 -2 0 -7 -7 -10 -15z"/>
<path d="M2504 225 c-7 -17 3 -35 18 -35 7 0 6 5 -2 15 -6 8 -9 19 -5 25 3 5
4 10 0 10 -3 0 -8 -7 -11 -15z"/>
<path d="M449 111 c-15 -12 -20 -23 -15 -39 8 -25 43 -39 60 -22 8 8 7 10 -7
4 -17 -6 -47 10 -47 27 0 16 31 38 45 33 8 -4 15 -4 15 -1 0 15 -32 14 -51 -2z"/>
<path d="M593 85 c0 -22 2 -30 4 -17 2 12 2 30 0 40 -3 9 -5 -1 -4 -23z"/>
<path d="M624 86 c1 -25 6 -41 16 -44 12 -4 13 -2 3 9 -6 8 -13 28 -16 44 -4
23 -4 20 -3 -9z"/>
<path d="M670 80 c0 -35 3 -40 23 -39 16 1 18 2 5 6 -10 2 -18 11 -18 18 0 7
8 16 18 18 16 4 16 5 0 6 -10 0 -18 5 -18 10 0 5 8 12 18 14 13 4 11 5 -5 6
-20 1 -23 -4 -23 -39z"/>
<path d="M520 83 c0 -6 8 -9 19 -6 13 3 21 -1 24 -14 3 -13 5 -11 6 7 1 20 -4
25 -24 25 -14 0 -25 -5 -25 -12z"/>
</g>
</svg>
