<!DOCTYPE svg PUBLIC "-//W3C//DTD SVG 1.1//EN" "http://www.w3.org/Graphics/SVG/1.1/DTD/svg11.dtd">
<!-- Uploaded to: SVG Repo, www.svgrepo.com, Transformed by: SVG Repo Mixer Tools -->
<svg fill="#000000" xmlns="http://www.w3.org/2000/svg" width="256px" height="256px" viewBox="0 0 100 100" enable-background="new 0 0 100 100" xml:space="preserve">
<g id="SVGRepo_bgCarrier" stroke-width="0"/>
<g id="SVGRepo_tracerCarrier" stroke-linecap="round" stroke-linejoin="round"/>
<g id="SVGRepo_iconCarrier"> <path d="M37.3,31.9h21.8c1.1,0,2-0.9,2-2v-4c0-3.3-2.7-5.9-5.9-5.9H41.3c-3.3,0-5.9,2.7-5.9,5.9v4 C35.3,31,36.2,31.9,37.3,31.9z"/> <path d="M70,24.9h-2c-0.6,0-1,0.4-1,1v4c0,4.4-3.6,7.9-7.9,7.9H37.3c-4.4,0-7.9-3.6-7.9-7.9v-4c0-0.6-0.4-1-1-1h-2 c-3.3,0-5.9,2.7-5.9,5.9v40.6c0,3.3,2.7,5.9,5.9,5.9h20c2.8,0,3.1-2.3,3.1-3.1V52.8c0-2.3,1.3-2.8,2-2.8h21.6c2.4,0,2.8-2.1,2.8-2.8 V31C76,27.6,73.3,24.9,70,24.9z"/> <path d="M78.4,60.4H56.6c-0.6,0-1.1-0.5-1.1-1.1v-2.2c0-0.6,0.5-1.1,1.1-1.1h21.8c0.6,0,1.1,0.5,1.1,1.1v2.2 C79.5,59.9,79,60.4,78.4,60.4z M78.4,70.2H56.6c-0.6,0-1.1-0.5-1.1-1.1v-2.2c0-0.6,0.5-1.1,1.1-1.1h21.8c0.6,0,1.1,0.5,1.1,1.1v2.2 C79.5,69.7,79,70.2,78.4,70.2z M78.4,80H56.6c-0.6,0-1.1-0.5-1.1-1.1v-2.2c0-0.6,0.5-1.1,1.1-1.1h21.8c0.6,0,1.1,0.5,1.1,1.1v2.2 C79.5,79.5,79,80,78.4,80z"/> </g>
</svg>