<!DOCTYPE svg PUBLIC "-//W3C//DTD SVG 1.1//EN" "http://www.w3.org/Graphics/SVG/1.1/DTD/svg11.dtd">
<!-- Uploaded to: SVG Repo, www.svgrepo.com, Transformed by: SVG Repo Mixer Tools -->
<svg width="256px" height="256px" viewBox="0 0 48.00 48.00" xmlns="http://www.w3.org/2000/svg" fill="" stroke="">
<g id="SVGRepo_bgCarrier" stroke-width="0"/>
<g id="SVGRepo_tracerCarrier" stroke-linecap="round" stroke-linejoin="round"/>
<g id="SVGRepo_iconCarrier"> <title>partners-solid</title> <g id="Layer_2" data-name="Layer 2"> <g id="invisible_box" data-name="invisible box"> <rect width="48" height="48" fill="none"/> </g> <g id="Q3_icons" data-name="Q3 icons"> <g> <path d="M18.4,13.8A5.9,5.9,0,0,1,23,12.1a7.6,7.6,0,0,1,5.2,2.2c2.9,2.8,3.4,7.2,1,9.7a2.1,2.1,0,0,0,0,2.9,2.4,2.4,0,0,0,1.4.5,1.8,1.8,0,0,0,1.4-.6c3.2-3.3,3.5-8.2,1.3-12.3H34a6.1,6.1,0,0,0,4.5-1.9,6.3,6.3,0,0,0-.2-8.9A6.5,6.5,0,0,0,34,2a6.6,6.6,0,0,0-4.6,1.9,6.3,6.3,0,0,0-1.6,5.3,11.2,11.2,0,0,0-4.7-1.1,9.5,9.5,0,0,0-7.6,3,2,2,0,1,0,2.9,2.7Z"/> <path d="M21.4,38.4C18,37.5,16,33.6,17,29.7s4.5-6.6,7.9-5.7a2,2,0,0,0,2.4-1.5,1.9,1.9,0,0,0-1.4-2.4,10.4,10.4,0,0,0-11.3,5.1,6.3,6.3,0,0,0-4.3-3.6l-1.4-.2a6.3,6.3,0,0,0-6.1,4.8,6.2,6.2,0,0,0,4.6,7.6l1.5.2a6.2,6.2,0,0,0,3.9-1.4,10.5,10.5,0,0,0,7.7,9.7h.4a2,2,0,0,0,2-1.5A1.9,1.9,0,0,0,21.4,38.4Z"/> <path d="M40.5,33.9a11.9,11.9,0,0,0,3.3-3.4A9.8,9.8,0,0,0,45,22.4,2,2,0,0,0,42.5,21a2,2,0,0,0-1.3,2.5,5.6,5.6,0,0,1-.8,4.8,8.2,8.2,0,0,1-4.5,3.4C32,32.9,28,31,27,27.7a2,2,0,0,0-2.5-1.4,2,2,0,0,0-1.4,2.5A10.5,10.5,0,0,0,33.2,36a6.3,6.3,0,0,0,5,10,5.7,5.7,0,0,0,1.8-.3,6.3,6.3,0,0,0,.5-11.8Z"/> </g> </g> </g> </g>
</svg>